%YAML 1.1
%TAG !u! tag:unity3d.com,2011:
--- !u!1045 &1
EditorBuildSettings:
  m_ObjectHideFlags: 0
  serializedVersion: 2
  m_Scenes:
  - enabled: 1
    path: Assets/Scene/Main Menu.unity
    guid: 9f81efb1842aa774f9d66dee31ef57df
  - enabled: 1
    path: Assets/Scene/CreditsScene.unity
    guid: fbf95ab5277a7cf4085e1215b75dce11
  - enabled: 1
    path: Assets/Scene/Gameplay.unity
    guid: 8c661f759b45f724fb59550477c6f669
  - enabled: 1
    path: Assets/Scene/Gameplay 1.unity
    guid: 0b8387ff7a0bdf84d84b14cc6501720d
  - enabled: 1
    path: Assets/Scene/Gameplay 2.unity
    guid: d7cc8eac72c7ae04ebe5c3e33da3d818
  - enabled: 1
    path: Assets/Scene/Success Screen.unity
    guid: 39f88f54cc9d55a4a8529c6b9092a96a
  - enabled: 1
    path: Assets/Scene/Fail Screen.unity
    guid: 4d5789b01faa74444843aa6cc0862c85
  m_configObjects: {}
